// Jest Snapshot v1, https://goo.gl/fbAQLP

exports[`Snapshot renders correctly 1`] = `
<div
  className="widget widget--default"
>
  <header>
    <h1
      className="widget__title"
    >
      Support Issues
    </h1>
    <h3
      className="widget__subtitle"
    >
      Last 7 days
    </h3>
  </header>
  <main
    className="widget__content"
  >
    <span />
  </main>
  <footer
    className="widget__footer"
  >
    <div>
      <h3
        className="widget__subtitle"
      >
        
      </h3>
      <p>
        
      </p>
    </div>
    <div>
      <h3
        className="widget__subtitle"
      >
        
      </h3>
      <p>
        
      </p>
    </div>
  </footer>
</div>
`;
